^C:\USERS\BORISOV.M.B\SOURCE\REPOS\COWS_BULLS\COWS_BULLS\PCH.CPP
C:\USERS\BORISOV.M.B\SOURCE\REPOS\COWS_BULLS\COWS_BULLS\DEBUG\COWS_BULLS.PCH
C:\USERS\BORISOV.M.B\SOURCE\REPOS\COWS_BULLS\COWS_BULLS\DEBUG\VC141.PDB
C:\USERS\BORISOV.M.B\SOURCE\REPOS\COWS_BULLS\COWS_BULLS\DEBUG\VC141.IDB
C:\USERS\BORISOV.M.B\SOURCE\REPOS\COWS_BULLS\COWS_BULLS\DEBUG\PCH.OBJ
^C:\USERS\BORISOV.M.B\SOURCE\REPOS\COWS_BULLS\COWS_BULLS\COWS_BULLS.CPP
C:\USERS\BORISOV.M.B\SOURCE\REPOS\COWS_BULLS\COWS_BULLS\DEBUG\VC141.PDB
C:\USERS\BORISOV.M.B\SOURCE\REPOS\COWS_BULLS\COWS_BULLS\DEBUG\VC141.IDB
C:\USERS\BORISOV.M.B\SOURCE\REPOS\COWS_BULLS\COWS_BULLS\DEBUG\COWS_BULLS.OBJ
